…
    ## [1] "PEERING"     "DIVING"      "DRIFTING"    "MAINTENANCE" "ASHORE"

``` r
#Count occurence of behaviors
loons_2023_behavior <- loons_2023 %>% 
  filter(species == "COMMON LOON") %>% 
  group_by(date, behavior, species, tide, tide_percentage) %>% 
  count(behavior)

loons_2023_behavior
```

    ## # A tibble: 52 × 6
    ## # Groups:   date, behavior, species, tide, tide_percentage [52]
    ##    date       behavior    species     tide  tide_percentage     n
    ##    <date>     <chr>       <chr>       <chr>           <dbl> <int>
    ##  1 2023-01-04 DIVING      COMMON LOON LOW                 0     4
    ##  2 2023-01-04 DRIFTING    COMMON LOON LOW                 0     2
    ##  3 2023-01-04 MAINTENANCE COMMON LOON LOW                 0     1
    ##  4 2023-01-04 PEERING     COMMON LOON LOW                 0     1
    ##  5 2023-01-06 DIVING      COMMON LOON MID                50     3
    ##  6 2023-01-06 DIVING      COMMON LOON MID                60     4
    ##  7 2023-01-08 DIVING      COMMON LOON HIGH               90     3
    ##  8 2023-01-08 DRIFTING    COMMON LOON HIGH               90     1
    ##  9 2023-01-12 DIVING      COMMON LOON LOW                 0     3
    ## 10 2023-01-12 DIVING      COMMON LOON LOW                10     2
    ## # ℹ 42 more rows
…
